…
``` r
tr_cor <- correlate(tr_tr[,1:52]) 
```

    ## 
    ## Correlation method: 'pearson'
    ## Missing treated using: 'pairwise.complete.obs'

``` r
tr_cor %>% shave()
```

    ## # A tibble: 52 x 53
    ##    term  roll_belt pitch_belt yaw_belt total_accel_belt gyros_belt_x
    ##    <chr>     <dbl>      <dbl>    <dbl>            <dbl>        <dbl>
    ##  1 roll~    NA        NA        NA               NA           NA    
    ##  2 pitc~    -0.215    NA        NA               NA           NA    
    ##  3 yaw_~     0.816    -0.699    NA               NA           NA    
    ##  4 tota~     0.981    -0.138     0.764           NA           NA    
    ##  5 gyro~    -0.123    -0.439     0.143           -0.171       NA    
    ##  6 gyro~     0.461    -0.398     0.528            0.405        0.333
    ##  7 gyro~    -0.464    -0.110    -0.278           -0.482        0.340
    ##  8 acce~     0.254    -0.966     0.706            0.169        0.479
    ##  9 acce~     0.927     0.0819    0.604            0.928       -0.273
    ## 10 acce~    -0.992     0.161    -0.778           -0.975        0.156
    ## # ... with 42 more rows, and 47 more variables: gyros_belt_y <dbl>,
    ## #   gyros_belt_z <dbl>, accel_belt_x <dbl>, accel_belt_y <dbl>,
    ## #   accel_belt_z <dbl>, magnet_belt_x <dbl>, magnet_belt_y <dbl>,
    ## #   magnet_belt_z <dbl>, roll_arm <dbl>, pitch_arm <dbl>, yaw_arm <dbl>,
    ## #   total_accel_arm <dbl>, gyros_arm_x <dbl>, gyros_arm_y <dbl>,
    ## #   gyros_arm_z <dbl>, accel_arm_x <dbl>, accel_arm_y <dbl>, accel_arm_z <dbl>,
    ## #   magnet_arm_x <dbl>, magnet_arm_y <dbl>, magnet_arm_z <dbl>,
    ## #   roll_dumbbell <dbl>, pitch_dumbbell <dbl>, yaw_dumbbell <dbl>,
    ## #   total_accel_dumbbell <dbl>, gyros_dumbbell_x <dbl>, gyros_dumbbell_y <dbl>,
…
